<svg width="18" height="18" viewBox="0 0 18 18" fill="none" xmlns="http://www.w3.org/2000/svg">
<path d="M6.22151 17.7817H2.58832C1.58541 17.7817 0.771729 16.9681 0.771729 15.9651V2.64345C0.771729 1.64054 1.58541 0.826859 2.58832 0.826859H6.22151C7.22442 0.826859 8.03811 1.64054 8.03811 2.64345V15.9651C8.03811 16.9681 7.22442 17.7817 6.22151 17.7817ZM17.7266 15.9651V2.64345C17.7266 1.64054 16.9129 0.826859 15.91 0.826859H12.2768C11.2739 0.826859 10.4602 1.64054 10.4602 2.64345V15.9651C10.4602 16.9681 11.2739 17.7817 12.2768 17.7817H15.91C16.9129 17.7817 17.7266 16.9681 17.7266 15.9651Z" fill="#3682F7"/>
</svg>
