<svg width="29" height="22" viewBox="0 0 29 22" fill="none" xmlns="http://www.w3.org/2000/svg">
<path d="M10.2039 21.2838L1.04618 12.1261C0.496 11.5759 0.496 10.6838 1.04618 10.1336L3.03859 8.14114C3.58876 7.5909 4.48087 7.5909 5.03105 8.14114L11.2001 14.3102L24.4136 1.09675C24.9638 0.546568 25.8559 0.546568 26.406 1.09675L28.3985 3.08921C28.9486 3.63939 28.9486 4.53144 28.3985 5.08167L12.1964 21.2838C11.6461 21.834 10.7541 21.834 10.2039 21.2838Z" fill="#3682F7"/>
</svg>
