<svg width="20" height="20" viewBox="0 0 20 20" fill="none" xmlns="http://www.w3.org/2000/svg">
<path d="M19.5048 7.22793L18.0062 5.72924C17.6504 5.37349 17.0752 5.37349 16.7232 5.72924L7.65914 14.7933L3.44313 10.5735C3.08738 10.2177 2.51212 10.2177 2.16016 10.5735L0.657681 12.076C0.301932 12.4317 0.301932 13.007 0.657681 13.3627L7.01576 19.7246C7.37151 20.0803 7.94677 20.0803 8.29873 19.7246L19.5011 8.51469C19.8568 8.15515 19.8568 7.5799 19.5048 7.22793ZM7.23148 11.2396C7.46613 11.478 7.85215 11.478 8.0868 11.2396L15.9587 3.3601C16.1933 3.12167 16.1933 2.73943 15.9587 2.50479L14.2481 0.790378C14.0134 0.55195 13.6274 0.55195 13.3928 0.790378L7.65914 6.524L5.56249 4.42357C5.32784 4.18514 4.94182 4.18514 4.70717 4.42357L2.99276 6.13798C2.75812 6.37641 2.75812 6.75865 2.99276 6.99329L7.23148 11.2396Z" fill="#3682F7"/>
</svg>
