<svg id="car-2" xmlns="http://www.w3.org/2000/svg" width="51.568" height="49.43" viewBox="0 0 51.568 49.43">
  <g id="Grupo_7" data-name="Grupo 7" transform="translate(0 0)">
    <g id="Grupo_6" data-name="Grupo 6">
      <path id="Trazado_9" data-name="Trazado 9" d="M119.721,34.979H137.68a1.672,1.672,0,0,0,1.464-1.829V17.188h-6.775a2.62,2.62,0,0,1-2.508-2.512V8.293H119.721A1.568,1.568,0,0,0,118,9.754v23.4A1.881,1.881,0,0,0,119.721,34.979Zm2.547-14.439h5.31a1.031,1.031,0,0,1,0,2.063h-5.31a1.031,1.031,0,0,1,0-2.063Zm0,4.641h12.475a1.031,1.031,0,0,1,0,2.063H122.269a1.031,1.031,0,0,1,0-2.063Zm0,4.641h12.475a1.031,1.031,0,0,1,0,2.063H122.269a1.031,1.031,0,0,1,0-2.063Z" transform="translate(-102.787 -8.293)" fill="#c1c1c1"/>
      <path id="Trazado_10" data-name="Trazado 10" d="M48.317,327.026a4.17,4.17,0,1,0,4.169,4.17h0A4.174,4.174,0,0,0,48.317,327.026Z" transform="translate(-38.456 -285.935)" fill="#c1c1c1"/>
      <path id="Trazado_11" data-name="Trazado 11" d="M226.445,21.854h5.721L226,16.017V21.4A.6.6,0,0,0,226.445,21.854Z" transform="translate(-196.864 -15.021)" fill="#c1c1c1"/>
      <path id="Trazado_12" data-name="Trazado 12" d="M49.955,210.98l-4.8-2.184a1.006,1.006,0,0,1-.438-.392l-4.21-6.611a3.96,3.96,0,0,0-2.094-1.655v.125a3.725,3.725,0,0,1-3.526,3.892H16.933a3.776,3.776,0,0,1-1.537-.426L11.7,208.514a1.018,1.018,0,0,1-.554.354L2.162,211.3A2.9,2.9,0,0,0,0,214.009v3.255a3.138,3.138,0,0,0,2.991,3.007h.666a6.231,6.231,0,0,1,12.408,0H35.119a6.231,6.231,0,0,1,12.408,0h1.308a2.916,2.916,0,0,0,2.733-3.007v-3.715A2.79,2.79,0,0,0,49.955,210.98Z" transform="translate(0 -175.406)" fill="#c1c1c1"/>
      <path id="Trazado_13" data-name="Trazado 13" d="M292.357,327.026a4.17,4.17,0,1,0,4.169,4.17h0A4.174,4.174,0,0,0,292.357,327.026Z" transform="translate(-251.034 -285.935)" fill="#c1c1c1"/>
    </g>
  </g>
</svg>
