<svg width="33" height="23" viewBox="0 0 33 23" fill="none" xmlns="http://www.w3.org/2000/svg">
<path d="M21.951 11.5016C21.0796 11.5016 20.2598 11.0395 19.8164 10.3003L16.5011 4.82766L13.191 10.3003C12.7425 11.0447 11.9227 11.5067 11.0513 11.5067C10.8193 11.5067 10.5873 11.4759 10.3656 11.4092L3.30197 9.39674V18.5349C3.30197 19.2896 3.81757 19.9467 4.54971 20.1264L15.6968 22.9037C16.2227 23.0321 16.7744 23.0321 17.2952 22.9037L28.4526 20.1264C29.1847 19.9415 29.7003 19.2844 29.7003 18.5349V9.39674L22.6367 11.404C22.415 11.4708 22.183 11.5016 21.951 11.5016ZM32.9124 5.74148L30.2571 0.463939C30.0973 0.145644 29.7519 -0.0391727 29.3961 0.00703138L16.5011 1.64471L21.2291 9.45321C21.4251 9.77664 21.8169 9.93065 22.183 9.82797L32.3865 6.92738C32.897 6.7785 33.1445 6.21379 32.9124 5.74148ZM2.74513 0.463939L0.089833 5.74148C-0.14734 6.21379 0.105301 6.7785 0.610581 6.92225L10.8142 9.82284C11.1802 9.92552 11.5721 9.7715 11.768 9.44807L16.5011 1.64471L3.60102 0.00703138C3.24526 -0.0340389 2.90497 0.145644 2.74513 0.463939Z" fill="#A5A5A5"/>
</svg>
